{
    "author": "Yann",
    "cells": [
        {
            "state": 1,
            "x": 1,
            "y": 0
        },
        {
            "state": 1,
            "x": 0,
            "y": 1
        },
        {
            "state": 1,
            "x": 3,
            "y": 1
        },
        {
            "state": 1,
            "x": 0,
            "y": 2
        },
        {
            "state": 1,
            "x": 3,
            "y": 2
        },
        {
            "state": 1,
            "x": 2,
            "y": 3
        }
    ],
    "date": "mar. juin 8 2021",
    "desc": "Un oscillateur amusant",
    "title": "Oscillateur 2"
}
