{
    "data": "x = 200, y = 9\n23bo37bo47bo37bo37bo$21bobo35bobo45bobo35bobo35bobo$11b2o6b2o12b2o14b2o6b2o12b2o24b2o6b2o12b2o14b2o6b2o12b2o14b2o6b2o12b2o$10bo3bo4b2o12b2o13bo3bo4b2o12b2o23bo3bo4b2o12b2o13bo3bo4b2o12b2o13bo3bo4b2o12b2o$o8bo5bo3b2o16b2o8bo5bo3b2o26b2o8bo5bo3b2o16b2o8bo5bo3b2o16b2o8bo5bo3b2o16bo$o8bo3bob2o4bobo13b2o8bo3bob2o4bobo23b2o8bo3bob2o4bobo13b2o8bo3bob2o4bobo13b2o8bo3bob2o4bobo13bo$9bo5bo7bo23bo5bo7bo33bo5bo7bo23bo5bo7bo23bo5bo7bo$10bo3bo33bo3bo43bo3bo33bo3bo33bo3bo$11b2o36b2o46b2o36b2o36b2o!",
    "height": 220,
    "left": 0,
    "model": "Game of Life",
    "title": "gosper-glider",
    "top": 104,
    "width": 200
}
