{
    "data": "x = 36, y = 9\n24bo$22bobo$12b2o6b2o12b2o$11bo3bo4b2o12b2o$2o8bo5bo3b2o$2o8bo3bob2o4bobo$10bo5bo7bo$11bo3bo$12b2o!",
    "height": 100,
    "left": 48,
    "model": "Weird Game of Life",
    "title": "Weird Gosper Gun",
    "top": 30,
    "width": 100
}
