{
    "alphabet": [
        {
            "color": [
                255,
                255,
                255
            ],
            "name": "Dead"
        },
        {
            "color": [
                0,
                0,
                255
            ],
            "name": "Alive"
        }
    ],
    "author": "JM",
    "date": "jeu. juin 10 2021",
    "desc": "Le jeu de la vie !",
    "neighborhood_data": {
        "radius": 1
    },
    "neighborhood_name": "Moore",
    "title": "Game of Life",
    "transition_data": {
    },
    "transition_name": "Game of Life"
}
