{
    "alphabet": [
        {
            "color": [
                255,
                255,
                0
            ],
            "name": "0"
        },
        {
            "color": [
                255,
                215,
                135
            ],
            "name": "1"
        },
        {
            "color": [
                255,
                170,
                0
            ],
            "name": "2"
        },
        {
            "color": [
                255,
                0,
                0
            ],
            "name": "3"
        },
        {
            "color": [
                0,
                255,
                0
            ],
            "name": "4"
        },
        {
            "color": [
                170,
                255,
                255
            ],
            "name": "5"
        },
        {
            "color": [
                85,
                0,
                127
            ],
            "name": "6"
        }
    ],
    "author": "Eugene",
    "date": "Fri Jun 11 2021",
    "desc": "",
    "neighborhood_data": {
        "radius": 1
    },
    "neighborhood_name": "Moore",
    "title": "Griffeath++",
    "transition_data": {
        "rule_string": "i, (i+1)%7:[3..*] -> (i+1)%7"
    },
    "transition_name": "Totalistic rulestring"
}
