{
    "alphabet": [
        {
            "color": [
                0,
                0,
                0
            ],
            "name": "Background"
        },
        {
            "color": [
                0,
                0,
                255
            ],
            "name": "Core"
        },
        {
            "color": [
                255,
                0,
                0
            ],
            "name": "Sheath"
        },
        {
            "color": [
                0,
                170,
                0
            ],
            "name": "Green"
        },
        {
            "color": [
                255,
                255,
                0
            ],
            "name": "Yellow"
        },
        {
            "color": [
                255,
                85,
                255
            ],
            "name": "Pink"
        },
        {
            "color": [
                255,
                255,
                255
            ],
            "name": "White"
        },
        {
            "color": [
                0,
                255,
                255
            ],
            "name": "Cyan"
        }
    ],
    "author": "JM",
    "date": "dim. juin 6 2021",
    "desc": "",
    "neighborhood_data": {
        "radius": 1
    },
    "neighborhood_name": "Von Neumann",
    "title": "langton",
    "transition_data": {
        "rule_string": "rotate4\n0,0,0,0,0->0\n0,0,1,0,0->2\n0,0,2,0,0->0\n0,0,3,0,0->0\n0,0,5,0,0->0\n0,0,6,0,0->3\n0,0,7,0,0->1\n0,0,1,0,1->2\n0,0,2,0,1->2\n0,0,3,0,1->2\n0,0,1,0,2->2\n0,0,2,0,2->0\n0,0,3,0,2->0\n0,0,6,0,2->2\n0,0,7,0,2->2\n0,0,2,0,3->0\n0,0,2,0,5->5\n0,0,2,0,6->2\n0,0,2,0,7->2\n0,0,2,1,0->2\n0,0,2,1,1->0\n0,0,2,2,0->0\n0,0,3,2,0->0\n0,0,5,2,0->0\n0,0,2,2,1->5\n0,0,2,2,2->0\n0,0,2,2,3->2\n0,0,2,5,2->2\n0,1,2,2,3->1\n0,1,2,2,4->1\n0,1,2,2,5->5\n0,1,2,2,6->1\n0,1,2,2,7->1\n0,1,5,2,7->1\n0,1,2,4,2->1\n0,1,2,4,3->1\n0,1,2,4,4->1\n0,1,2,4,7->1\n0,1,5,6,2->1\n0,1,2,7,2->1\n0,1,5,7,2->5\n0,1,2,7,5->1\n0,1,2,7,6->1\n0,1,2,7,7->1\n0,2,7,5,2->1\n1,0,1,0,0->1\n1,0,6,0,0->1\n1,0,7,0,0->7\n1,0,1,0,1->1\n1,0,2,0,1->1\n1,0,1,0,2->1\n1,0,4,0,2->4\n1,0,7,0,2->7\n1,0,1,0,5->1\n1,0,1,1,0->1\n1,0,1,1,1->1\n1,0,4,1,2->4\n1,0,7,1,2->7\n1,0,2,2,0->6\n1,0,2,2,1->1\n1,0,1,2,2->1\n1,0,4,2,2->4\n1,0,6,2,2->3\n1,0,7,2,2->7\n1,0,2,2,3->7\n1,0,2,2,4->4\n1,0,2,2,6->6\n1,0,4,2,6->4\n1,0,7,2,6->7\n1,0,1,2,7->0\n1,0,2,2,7->7\n1,0,2,5,4->7\n1,1,2,1,1->1\n1,1,2,1,2->1\n1,1,4,1,2->4\n1,1,5,1,2->1\n1,1,6,1,2->1\n1,1,7,1,2->7\n1,1,2,1,5->2\n1,1,2,2,1->1\n1,1,2,2,2->1\n1,1,4,2,2->4\n1,1,5,2,2->1\n1,1,7,2,2->7\n1,1,2,2,3->1\n1,1,2,2,4->4\n1,1,2,2,6->1\n1,1,2,2,7->7\n1,1,2,3,2->1\n1,2,4,2,2->4\n1,2,7,2,2->7\n1,2,3,2,4->4\n1,2,4,2,5->7\n1,2,4,3,2->4\n1,2,7,3,2->7\n1,2,5,4,2->5\n1,2,6,4,2->7\n1,2,7,5,2->5\n2,0,1,0,0->2\n2,0,2,0,0->2\n2,0,4,0,0->2\n2,0,7,0,0->1\n2,0,2,0,1->2\n2,0,5,0,1->2\n2,0,1,0,2->2\n2,0,2,0,2->2\n2,0,3,0,2->2\n2,0,4,0,2->2\n2,0,5,0,2->0\n2,0,6,0,2->2\n2,0,7,0,2->2\n2,0,2,0,3->6\n2,0,2,0,4->3\n2,0,1,0,5->7\n2,0,2,0,5->2\n2,0,7,0,5->5\n2,0,2,0,7->2\n2,0,2,1,0->2\n2,0,2,1,1->2\n2,0,2,1,2->2\n2,0,2,1,4->2\n2,0,2,1,7->2\n2,0,2,2,0->2\n2,0,3,2,0->2\n2,0,5,2,0->2\n2,0,7,2,0->3\n2,0,2,2,1->2\n2,0,5,2,1->2\n2,0,1,2,2->2\n2,0,2,2,2->2\n2,0,7,2,2->2\n2,0,2,2,3->1\n2,0,2,2,4->2\n2,0,5,2,4->2\n2,0,2,2,5->0\n2,0,5,2,5->2\n2,0,2,2,6->2\n2,0,2,2,7->2\n2,0,2,3,1->2\n2,0,1,3,2->6\n2,0,2,3,2->6\n2,0,2,3,4->2\n2,0,2,4,2->2\n2,0,2,5,1->2\n2,0,1,5,2->2\n2,0,2,5,2->2\n2,0,2,5,5->1\n2,0,2,5,7->5\n2,0,2,6,2->2\n2,0,2,6,7->2\n2,0,2,7,1->2\n2,0,2,7,2->2\n2,0,2,7,4->2\n2,0,2,7,7->2\n2,1,2,1,2->2\n2,1,6,1,2->1\n2,1,2,2,2->2\n2,1,4,2,2->2\n2,1,6,2,2->2\n2,1,7,2,2->2\n2,1,2,4,2->2\n2,1,2,5,2->2\n2,1,2,6,2->2\n2,1,2,7,2->2\n2,2,7,2,2->2\n2,2,4,2,4->2\n2,2,6,2,4->2\n2,2,6,2,7->2\n2,2,7,2,7->2\n3,0,1,0,0->3\n3,0,2,0,0->2\n3,0,4,0,0->1\n3,0,7,0,0->6\n3,0,2,0,1->3\n3,0,2,0,4->1\n3,0,2,0,6->2\n3,0,2,1,0->1\n3,0,2,1,2->0\n3,0,1,2,5->1\n4,0,2,1,1->0\n4,0,2,1,2->0\n4,0,5,1,2->0\n4,0,2,2,1->0\n4,0,2,2,2->1\n4,0,2,2,3->6\n4,0,2,2,5->0\n4,0,2,3,2->1\n5,0,2,0,0->2\n5,0,1,0,2->5\n5,0,2,0,2->5\n5,0,3,0,2->2\n5,0,7,0,2->2\n5,0,2,0,5->0\n5,0,2,2,0->2\n5,0,2,2,1->2\n5,0,5,2,1->2\n5,0,2,2,2->0\n5,0,4,2,2->4\n5,0,2,2,7->2\n5,1,2,2,1->2\n5,1,2,2,2->0\n5,1,2,2,4->2\n5,1,2,2,7->2\n6,0,1,0,0->1\n6,0,2,0,0->1\n6,0,2,2,1->0\n6,1,2,2,1->5\n6,1,3,2,1->1\n6,1,2,2,2->5\n7,0,7,0,0->7\n7,0,2,1,1->0\n7,0,2,1,2->0\n7,0,5,1,2->0\n7,0,2,2,1->0\n7,0,2,2,2->1\n7,0,5,2,2->1\n7,0,2,2,3->1\n7,0,2,2,5->5\n7,0,2,2,7->0"
    },
    "transition_name": "Non isotropic rulestring"
}
