{
    "alphabet": [
        {
            "color": [
                255,
                255,
                255
            ],
            "name": "Dead"
        },
        {
            "color": [
                0,
                0,
                255
            ],
            "name": "Alive"
        }
    ],
    "author": "JM",
    "date": "jeu. juin 10 2021",
    "desc": "Game of Life, but using a custom unorthodox neighborhood",
    "neighborhood_data": {
        "neighbors": [
            [
                0,
                -2
            ],
            [
                -1,
                -1
            ],
            [
                1,
                -1
            ],
            [
                -2,
                0
            ],
            [
                2,
                0
            ],
            [
                -1,
                1
            ],
            [
                1,
                1
            ],
            [
                0,
                2
            ]
        ]
    },
    "neighborhood_name": "Arbitrary",
    "title": "Weird Game of Life",
    "transition_data": {
    },
    "transition_name": "Game of Life"
}
